/Users/user/Desktop/Repositorios/lucas-ribeiro/modulo3/AULA02/Petshop/src/test/java/br/com/dbc/petshop/entity/AnimalTest.java
/Users/user/Desktop/Repositorios/lucas-ribeiro/modulo3/AULA02/Petshop/src/test/java/br/com/dbc/petshop/ClienteServiceTest.java
/Users/user/Desktop/Repositorios/lucas-ribeiro/modulo3/AULA02/Petshop/src/test/java/br/com/dbc/petshop/AnimalServiceTest.java
