-------------------------------------------------------------------------------
Test set: br.com.dbc.petshop.ClienteServiceTest
-------------------------------------------------------------------------------
Tests run: 4, Failures: 0, Errors: 0, Skipped: 0, Time elapsed: 0.296 sec
