br/com/dbc/petshop/entity/Animal.class
br/com/dbc/petshop/PersistenceUtils.class
br/com/dbc/petshop/entity/Cliente.class
br/com/dbc/petshop/AnimalService.class
br/com/dbc/petshop/entity/SexoType.class
br/com/dbc/petshop/Main.class
br/com/dbc/petshop/ClienteService.class
br/com/dbc/petshop/entity/HibernateUtil.class
